<svg xmlns="http://www.w3.org/2000/svg" viewBox="0 0 838 235">
  <g class="CorpLogo">
    <g class="Logo">
      <path d="m121 5 16 16-16 16-16-16z" class="Rectangle 1" />
      <path d="m16 97 16 16-16 16-16-16z" class="Rectangle 3" />
      <path d="m116 102 16 16-16 16-16-16z" class="Rectangle 4" />
      <path d="m45 166 16 16-16 16-16-16z" class="Rectangle 5" />
      <path d="m108 203 16 16-16 16-16-16z" class="Rectangle 6" />
      <path d="m53 35 16 16-16 16-16-16z" class="Rectangle 2" />
      <path d="m184 42 16 16-16 16-16-16z" class="Rectangle 7" />
      <path d="m213 111 16 16-16 16-16-16z" class="Rectangle 8" />
      <path d="m175 175 16 16-16 16-16-16z" class="Rectangle 9" />
    </g>
    <g class="Name">
      <path
        fill-rule="evenodd"
        d="M782 99.5v91h12v-32c43 18 65-53.5 14.5-59H782Zm29 10c26 7 14 53.5-16.5 38.5v-38.5H811Z"
        class="p"
        clip-rule="evenodd"
      />
      <path
        d="M736.5 159.5v-60h12V112c10-14.5 20.692-18.83 32-7l-6 9.5c-12-11-22-4.5-26 10v35h-12Z"
        class="r"
      />
      <path
        fill-rule="evenodd"
        d="M697 161c18.225 0 33-14.103 33-31.5S715.225 98 697 98s-33 14.103-33 31.5 14.775 31.5 33 31.5Zm-.5-11c11.322 0 20.5-9.178 20.5-20.5s-9.178-20.5-20.5-20.5-20.5 9.178-20.5 20.5 9.178 20.5 20.5 20.5Z"
        class="o"
        clip-rule="evenodd"
      />
      <path
        d="M660 138c-93 48-91.91-95.232-1-50V74c-110.5-43-110 124.5 1 79v-15Z"
        class="C"
      />
      <path
        d="M564.5 116.5s-18.738-8.573-21.5-2.5c-2.762 6.073 19.828 12.958 20.5 24.5.346 2.539.309 3.961 0 6.5-5.793 18.71-22.5 21-43 11.5l2-13s1.509 1.684 13 3.5c0 0 10 1 9.5-3s-3.014-6.252-8.5-10c-21.371-11.841-12.971-39.42 12.5-37l17.5 5.5-2 14Z"
        class="s"
      />
      <path
        fill-rule="evenodd"
        d="M486.5 155.5v4H504l8.5-60.5-31-1.5c-21.828 5.656-30 12-34 33.5s14.984 41.79 39 24.5Zm-3.5-43c-28.25 9.693-18.3 49.834 5.5 30.5l4-30.5H483Z"
        class="a"
        clip-rule="evenodd"
      />
      <path d="M440.5 67.5h-18l-13 92H428l12.5-92Z" class="l" />
      <path
        d="M391.5 86.5H373L371 99h-12.5l-2.5 14h12.5c-13 46 2.516 54.087 30 45.5v-16c-16.462 8.281-19.015 1.903-11.5-29.5h13.5l2.5-14h-13.5l2-12.5Z"
        class="t"
      />
      <path
        fill-rule="evenodd"
        d="m264.5 159.5 45-94H331l16 94h-20l-3-20h-29l-8.5 20h-22Zm53-74L322 126h-21l16.5-40.5Z"
        class="A"
        clip-rule="evenodd"
      />
    </g>
  </g>
</svg>
